lab1/task3-pwm/wokwi.vcd
$version Generated by Wokwi.com $end
$date Thu, 29 Jan 2026 21:45:21 GMT $end
$timescale 1ns $end
$scope module logic $end
$var wire 1 ! D0 $end
$upscope $end
$enddefinitions $end
#0
0!
#2094125
1!
#2206125
0!
#4126124
1!
#4254125
0!
#6158125
1!
#6302125
0!
#8190124
1!
#8350125
0!
#10222125
1!
#10398125
0!
#12254125
1!
#12446125
0!
#14286125
1!
#14494125
0!
#16318125
1!
#16542125
0!
#18350125
1!
#18590125
0!
#20382125
1!
#20638125
0!
#22414125
1!
#22686125
0!
#24446125
1!
#24734125
0!
#26478125
1!
#26782125
0!
#28510125
1!
#28830125
0!
#30542125
1!
#30878125
0!
#32574125
1!
#32926125
0!
#34606125
1!
#34974125
0!
#36638125
1!
#37022125
0!
#38670125
1!
#39070125
0!
#40702125
1!
#41118125
0!
#42734125
1!
#43166125
0!
#44766125
1!
#45214125
0!
#46798125
1!
#47262125
0!
#48830125
1!
#49310125
0!
#50862125
1!
#51358125
0!
#52894125
1!
#53406125
0!
#54926125
1!
#55454125
0!
#56958125
1!
#57502125
0!
#58990125
1!
#59550125
0!
#61022125
1!
#61598125
0!
#63054125
1!
#63646125
0!
#65086124
1!
#65694125
0!
#67118125
1!
#67742125
0!
#69150125
1!
#69790125
0!
#71182125
1!
#71838125
0!
#73214125
1!
#73886125
0!
#75246125
1!
#75934125
0!
#77278125
1!
#77982125
0!
#79310125
1!
#80030125
0!
#81338125
1!
#82082125
0!
#83370125
1!
#84130125
0!
#85402125
1!
#86178125
0!
#87434125
1!
#88226125
0!
#89466125
1!
#90274125
0!
#91498125
1!
#92322125
0!
#93530125
1!
#94370125
0!
#95562125
1!
#96418125
0!
#97594125
1!
#98466125
0!
#99626125
1!
#100514125
0!
#101658125
1!
#102562125
0!
#103690125
1!
#104610125
0!
#105722125
1!
#106658125
0!
#107754125
1!
#108706125
0!
#109786125
1!
#110754125
0!
#111818125
1!
#112802125
0!
#113850125
1!
#114850125
0!
#115882125
1!
#116898125
0!
#117914125
1!
#118946125
0!
#119946125
1!
#120994125
0!
#121978125
1!
#123042125
0!
#124010125
1!
#125090125
0!
#126042125
1!
#127138124
0!
#128074125
1!
#129186125
0!
#130106124
1!
#131234125
0!
#132138125
1!
#133282125
0!
#134170125
1!
#135330125
0!
#136202125
1!
#137378125
0!
#138234125
1!
#139426125
0!
#140266125
1!
#141474125
0!
#142298125
1!
#143522125
0!
#144330125
1!
#145570125
0!
#146362125
1!
#147618125
0!
#148394125
1!
#149666125
0!
#150426125
1!
#151714125
0!
#152458125
1!
#153762125
0!
#154490125
1!
#155810125
0!
#156522125
1!
#157858125
0!
#158554125
1!
#159906125
0!
#160586125
1!
#161954125
0!
#162618125
1!
#164002125
0!
#164650125
1!
#166050125
0!
#166682125
1!
#168098125
0!
#168714125
1!
#170146125
0!
#170746125
1!
#172194125
0!
#172778125
1!
#174242125
0!
#174810125
1!
#176290125
0!
#176842125
1!
#178338125
0!
#178874125
1!
#180386125
0!
#180906125
1!
#182434125
0!
#182938125
1!
#184482125
0!
#184970125
1!
#186530125
0!
#187002125
1!
#188578125
0!
#189034125
1!
#190626125
0!
#191066125
1!
#192674125
0!
#193098125
1!
#194722125
0!
#195130125
1!
#196770125
0!
#197158125
1!
#198822125
0!
#199190125
1!
#200870125
0!
#201222125
1!
#202918125
0!
#203254125
1!
#204966125
0!
#205286125
1!
#207014125
0!
#207318125
1!
#209062125
0!
#209350125
1!
#211110125
0!
#211382125
1!
#213158125
0!
#213414125
1!
#215206125
0!
#215446125
1!
#217254125
0!
#217478125
1!
#219302125
0!
#219510125
1!
#221350125
0!
#221542125
1!
#223398125
0!
#223574125
1!
#225446125
0!
#225606125
1!
#227494125
0!
#227638125
1!
#229542125
0!
#229670125
1!
#231590125
0!
#231706125
1!
#233634125
0!
#233754125
1!
#235666125
0!
#235802125
1!
#237698125
0!
#237850125
1!
#239730125
0!
#239898125
1!
#241762125
0!
#241946125
1!
#243794125
0!
#243994125
1!
#245826125
0!
#246042125
1!
#247858125
0!
#248090125
1!
#249890125
0!
#250138125
1!
#251922125
0!
#252186124
1!
#253954124
0!
#254234124
1!
#255986125
0!
#256282125
1!
#258018125
0!
#258330125
1!
#260050125
0!
#260378125
1!
#262082125
0!
#262426125
1!
#264114124
0!
#264474125
1!
#266146125
0!
#266522125
1!
#268178125
0!
#268570125
1!
#270210125
0!
#270618125
1!
#272242125
0!
#272666125
1!
#274274125
0!
#274714125
1!
#276306125
0!
#276762125
1!
#278338125
0!
#278810125
1!
#280370125
0!
#280858125
1!
#282402125
0!
#282906125
1!
#284434125
0!
#284954125
1!
#286466125
0!
#287002125
1!
#288498125
0!
#289050125
1!
#290530125
0!
#291098125
1!
#292562125
0!
#293146125
1!
#294594125
0!
#295194125
1!
#296626125
0!
#297242125
1!
#298658125
0!
#299290125
1!
#300690125
0!
#301338125
1!
#302722125
0!
#303386125
1!
#304754125
0!
#305434125
1!
#306786125
0!
#307482125
1!
#308818125
0!
#309530125
1!
#310850125
0!
#311578125
1!
#312882125
0!
#313630125
1!
#314910125
0!
#315678125
1!
#316942125
0!
#317726125
1!
#318974125
0!
#319774125
1!
#321006125
0!
#321822125
1!
#323038125
0!
#323870125
1!
#325070125
0!
#325918125
1!
#327102125
0!
#327966125
1!
#329134125
0!
#330014125
1!
#331166125
0!
#332062125
1!
#333198125
0!
#334110125
1!
#335230125
0!
#336158125
1!
#337262125
0!
#338206125
1!
#339294125
0!
#340254125
1!
#341326125
0!
#342302125
1!
#343358125
0!
#344350125
1!
#345390125
0!
#346398125
1!
#347422125
0!
#348446125
1!
#349454125
0!
#350494125
1!
#351486125
0!
#352542125
1!
#353518125
0!
#354590125
1!
#355550125
0!
#356638125
1!
#357582125
0!
#358686125
1!
#359614125
0!
#360734125
1!
#361646125
0!
#362782125
1!
#363678125
0!
#364830125
1!
#365710125
0!
#366878125
1!
#367742125
0!
#368926125
1!
#369774125
0!
#370974125
1!
#371806125
0!
#373022125
1!
#373838125
0!
#375070125
1!
#375870125
0!
#377118125
1!
#377902125
0!
#379166125
1!
#379934125
0!
#381214125
1!
#381966125
0!
#383262125
1!
#383998125
0!
#385310125
1!
#386030125
0!
#387358125
1!
#388062125
0!
#389406125
1!
#390094125
0!
#391454125
1!
#392126125
0!
#393502125
1!
#394158125
0!
#395550125
1!
#396190125
0!
#397598125
1!
#398222125
0!
#399646125
1!
#400254125
0!
#401694125
1!
#402286125
0!
#403742125
1!
#404318125
0!
#405790125
1!
#406350125
0!
#407838125
1!
#408382125
0!
#409886125
1!
#410414125
0!
#411934125
1!
#412446125
0!
#413982125
1!
#414478125
0!
#416030125
1!
#416510125
0!
#418078125
1!
#418542125
0!
#420126125
1!
#420574125
0!
#422174125
1!
#422606125
0!
#424222125
1!
#424638125
0!
#426270125
1!
#426670125
0!
#428318125
1!
#428702125
0!
#430370125
1!
#430730125
0!
#432418125
1!
#432762125
0!
#434466125
1!
#434794125
0!
#436514125
1!
#436826125
0!
#438562125
1!
#438858125
0!
#440610125
1!
#440890125
0!
#442658125
1!
#442922125
0!
#444706125
1!
#444954125
0!
#446754125
1!
#446986125
0!
#448802125
1!
#449018125
0!
#450850125
1!
#451050125
0!
#452898125
1!
#453082125
0!
#454946125
1!
#455114125
0!
#456994125
1!
#457146125
0!
#459042125
1!
#459178125
0!
#461090125
1!
#461210125
0!
#463134125
1!
#463246125
0!
#465166125
1!
#465294125
0!
#467198125
1!
#467342125
0!
#469230125
1!
#469390125
0!
#471262125
1!
#471438125
0!
#473294125
1!
#473486125
0!
#475326125
1!
#475534125
0!
#477358125
1!
#477582125
0!
#479390125
1!
#479630125
0!
#481422125
1!
#481678125
0!
#483454125
1!
#483726125
0!
#485486125
1!
#485774125
0!
#487518125
1!
#487822125
0!
#489550125
1!
#489870125
0!
#491582125
1!
#491918125
0!
#493614125
1!
#493966125
0!
#495646125
1!
#496014125
0!
#497678125
1!
#498062125
0!
#499710125
1!
#500110124
0!
#501742125
1!
#502158125
0!
#503774124
1!
#504206124
0!
#505806125
1!
#506254125
0!
#507838125
1!
#508302125
0!
#509870124
1!
#510350125
0!
#511902125
1!
#512398125
0!
#513934125
1!
#514446125
0!
#515966125
1!
#516494125
0!
#517998125
1!
#518542124
0!
#520030125
1!
#520590125
0!
#522062125
1!
#522638124
0!
#524094124
1!
#524686125
0!
#526126125
1!
#526734125
0!
#528158125
1!
#528782125
0!
#530190124
1!
#530830125
0!
#532222125
1!
#532878125
0!
#534254125
1!
#534926125
0!
#536286124
1!
#536974125
0!
#538318125
1!
#539022125
0!
#540350125
1!
#541070125
0!
#542382125
1!
#543118125
0!
#544414125
1!
#545166125
0!
#546442125
1!
#547218125
0!
#548474125
1!
#549266125
0!
#550506125
1!
#551314125
0!
#552538125
1!
#553362125
0!
#554570125
1!
#555410125
0!
#556602125
1!
#557458125
0!
#558634125
1!
#559506125
0!
#560666125
1!
#561554125
0!
#562698125
1!
#563602125
0!
#564730125
1!
#565650125
0!
#566762125
1!
#567698125
0!
#568794125
1!
#569746125
0!
#570826125
1!
#571794125
0!
#572858125
1!
#573842125
0!
#574890125
1!
#575890125
0!
#576922125
1!
#577938125
0!
#578954125
1!
#579986125
0!
#580986125
1!
#582034125
0!
#583018125
1!
#584082125
0!
#585050125
1!
#586130125
0!
#587082125
1!
#588178125
0!
#589114125
1!
#590226125
0!
#591146125
1!
#592274125
0!
#593178125
1!
#594322125
0!
#595210125
1!
#596370125
0!
#597242125
1!
#598418125
0!
#599274125
1!
#600466125
0!
#601306125
1!
#602514125
0!
#603338125
1!
#604562125
0!
#605370125
1!
#606610125
0!
#607402125
1!
#608658125
0!
#609434125
1!
#610706125
0!
#611466125
1!
#612754125
0!
#613498125
1!
#614802125
0!
#615530125
1!
#616850125
0!
#617562125
1!
#618898125
0!
#619594125
1!
#620946125
0!
#621626125
1!
#622994125
0!
#623658125
1!
#625042125
0!
#625690125
1!
#627090125
0!
#627722125
1!
#629138125
0!
#629754125
1!
#631186125
0!
#631786125
1!
#633234125
0!
#633818125
1!
#635282125
0!
#635850125
1!
#637330125
0!
#637882125
1!
#639378125
0!
#639914125
1!
#641426125
0!
#641946125
1!
#643474125
0!
#643978125
1!
#645522125
0!
#646010125
1!
#647570125
0!
#648042125
1!
#649618125
0!
#650074125
1!
#651666125
0!
#652106125
1!
#653714125
0!
#654138125
1!
#655762125
0!
#656170125
1!
#657810125
0!
#658202125
1!
#659858125
0!
#660234125
1!
#661906125
0!
#662262125
1!
#663958125
0!
#664294125
1!
#666006125
0!
#666326125
1!
#668054125
0!
#668358125
1!
#670102125
0!
#670390125
1!
#672150125
0!
#672422125
1!
#674198125
0!
#674454125
1!
#676246125
0!
#676486125
1!
#678294125
0!
#678518125
1!
#680342125
0!
#680550125
1!
#682390125
0!
#682582125
1!
#684438125
0!
#684614125
1!
#686486125
0!
#686646125
1!
#688534125
0!
#688678125
1!
#690582125
0!
#690710125
1!
#692630125
0!
#692746125
1!
#694674125
0!
#694794125
1!
#696706125
0!
#696842125
1!
#698738125
0!
#698890125
1!
#700770125
0!
#700938125
1!
#702802125
0!
#702986125
1!
#704834125
0!
#705034125
1!
#706866125
0!
#707082125
1!
#708898125
0!
#709130125
1!
#710930125
0!
#711178125
1!
#712962125
0!
#713226125
1!
#714994125
0!
#715274125
1!
#717026125
0!
#717322125
1!
#719058125
0!
#719370125
1!
#721090125
0!
#721418125
1!
#723122125
0!
#723466125
1!
#725154125
0!
#725514125
1!
#727186125
0!
#727562125
1!
#729218125
0!
#729610125
1!
#731250125
0!
#731658125
1!
#733282125
0!
#733706125
1!
#735314125
0!
#735754125
1!
#737346125
0!
#737802125
1!
#739378125
0!
#739850125
1!
#741410125
0!
#741898125
1!
#743442125
0!
#743946125
1!
#745474125
0!
#745994125
1!
#747506125
0!
#748042125
1!
#749538125
0!
#750090125
1!
#751570125
0!
#752138125
1!
#753602125
0!
#754186125
1!
#755634125
0!
#756234125
1!
#757666125
0!
#758282125
1!
#759698125
0!
#760330125
1!
#761730125
0!
#762378125
1!
#763762125
0!
#764426125
1!
#765794125
0!
#766474125
1!
#767826125
0!
#768522125
1!
#769858125
0!
#770570125
1!
#771890125
0!
#772618125
1!
#773922125
0!
#774666125
1!
#775954125
0!
#776718125
1!
#777982125
0!
#778766125
1!
#780014125
0!
#780814125
1!
#782046125
0!
#782862125
1!
#784078125
0!
#784910125
1!
#786110125
0!
#786958125
1!
#788142125
0!
#789006125
1!
#790174125
0!
#791054125
1!
#792206125
0!
#793102125
1!
#794238125
0!
#795150125
1!
#796270125
0!
#797198125
1!
#798302125
0!
#799246125
1!
#800334125
0!
#801294125
1!
#802366125
0!
#803342125
1!
#804398125
0!
#805390125
1!
#806430125
0!
#807438125
1!
#808462125
0!
#809486125
1!
#810494125
0!
#811534125
1!
#812526125
0!
#813582125
1!
#814558125
0!
#815630125
1!
#816590125
0!
#817678125
1!
#818622125
0!
#819726125
1!
#820654125
0!
#821774125
1!
#822686125
0!
#823822125
1!
#824718125
0!
#825870125
1!
#826750125
0!
#827918125
1!
#828782125
0!
#829966125
1!
#830814125
0!
#832014125
1!
#832846125
0!
#834062125
1!
#834878125
0!
#836110125
1!
#836910125
0!
#838158125
1!
#838942125
0!
#840206125
1!
#840974125
0!
#842254125
1!
#843006125
0!
#844302125
1!
#845038125
0!
#846350125
1!
#847070125
0!
#848398125
1!
#849102125
0!
#850446125
1!
#851134125
0!
#852494125
1!
#853166125
0!
#854542125
1!
#855198125
0!
#856590125
1!
#857230125
0!
#858638125
1!
#859262125
0!
#860686125
1!
#861294125
0!
#862734125
1!
#863326125
0!
#864782125
1!
#865358125
0!
#866830125
1!
#867390125
0!
#868878125
1!
#869422125
0!
#870926125
1!
#871454125
0!
#872974125
1!
#873486125
0!
#875022125
1!
#875518125
0!
#877070125
1!
#877550125
0!
#879118125
1!
#879582125
0!
#881166125
1!
#881614125
0!
#883214125
1!
#883646125
0!
#885262125
1!
#885678125
0!
#887310125
1!
#887710125
0!
#889358125
1!
#889742125
0!
#891410125
1!
#891770125
0!
#893458125
1!
#893802125
0!
#895506125
1!
#895834125
0!
#897554125
1!
#897866125
0!
#899602125
1!
#899898125
0!
#901650125
1!
#901930125
0!
#903698125
1!
#903962125
0!
#905746125
1!
#905994125
0!
#907794125
1!
#908026125
0!
#909842125
1!
#910058125
0!
#911890125
1!
#912090125
0!
#913938125
1!
#914122125
0!
#915986125
1!
#916154125
0!
#918034125
1!
#918186125
0!
#920082125
1!
#920218125
0!
#922130125
1!
#922250125
0!
#924174125
1!
#924286125
0!
#926206125
1!
#926334125
0!
#928238125
1!
#928382125
0!
#930270125
1!
#930430125
0!
#932302125
1!
#932478125
0!
#934334125
1!
#934526125
0!
#936366125
1!
#936574125
0!
#938398125
1!
#938622125
0!
#940430125
1!
#940670125
0!
#942462125
1!
#942718125
0!
#944494125
1!
#944766125
0!
#946526125
1!
#946814125
0!
#948558125
1!
#948862125
0!
#950590125
1!
#950910125
0!
#952622125
1!
#952958125
0!
#954654125
1!
#955006125
0!
#956686125
1!
#957054125
0!
#958718125
1!
#959102125
0!
#960750125
1!
#961150125
0!
#962782125
1!
#963198125
0!
#964814125
1!
#965246125
0!
#966846125
1!
#967294125
0!
#968878125
1!
#969342125
0!
#970910125
1!
#971390125
0!
#972942125
1!
#973438125
0!
#974974125
1!
#975486125
0!
#977006125
1!
#977534125
0!
#979038125
1!
#979582125
0!
#981070125
1!
#981630125
0!
#983102125
1!
#983678125
0!
#985134125
1!
#985726125
0!
#987166125
1!
#987774125
0!
#989198125
1!
#989822125
0!
#991230125
1!
#991870125
0!
#993262125
1!
#993918125
0!
#995294125
1!
#995966125
0!
#997326125
1!
#998014125
0!
#999358125
1!
#1000062124
0!
#1001390124
1!
#1002110125
0!
#1003422125
1!
#1004158125
0!
#1005454125
1!
#1006206125
0!
#1007482124
1!
#1008258125
0!
#1009514124
1!
#1010306125
0!
#1011546125
1!
#1012354125
0!
#1013578125
1!
#1014402124
0!
#1015610125
1!
#1016450125
0!
#1017642125
1!
#1018498125
0!
#1019674125
1!
#1020546125
0!
#1021706124
1!
#1022594124
0!
#1023738125
1!
#1024642125
0!
#1025770125
1!
#1026690125
0!
#1027802125
1!
#1028738125
0!
#1029834125
1!
#1030786125
0!
#1031866125
1!
#1032834124
0!
#1033898124
1!
#1034882125
0!
#1035930124
1!
#1036930125
0!
#1037962125
1!
#1038978125
0!
#1039994125
1!
#1041026124
0!
#1042026125
1!
#1043074125
0!
#1044058125
1!
#1045122125
0!
#1046090125
1!
#1047170125
0!
#1048122124
1!
#1049218124
0!
#1050154124
1!
#1051266124
0!
#1052186125
1!
#1053314125
0!
#1054218125
1!
#1055362125
0!
#1056250125
1!
#1057410125
0!
#1058282125
1!
#1059458124
0!
#1060314125
1!
#1061506125
0!
#1062346124
1!
#1063554125
0!
#1064378125
1!
#1065602125
0!
#1066410125
1!
#1067650124
0!
#1068442125
1!
#1069698125
0!
#1070474125
1!
#1071746125
0!
#1072506125
1!
#1073794125
0!
#1074538125
1!
#1075842125
0!
#1076570125
1!
#1077890125
0!
#1078602125
1!
#1079938125
0!
#1080634125
1!
#1081986125
0!
#1082666125
1!
#1084034125
0!
#1084698125
1!
#1086082125
0!
#1086730125
1!
#1088130125
0!
#1088762125
1!
#1090178125
0!
#1090794125
1!
#1092226125
0!
#1092826125
1!
#1094274125
0!
#1094858125
1!
#1096322125
0!
#1096890125
1!
#1098370125
0!
#1098922125
1!
#1100418125
0!
#1100954125
1!
#1102466125
0!
#1102986125
1!
#1104514125
0!
#1105018125
1!
#1106562125
0!
#1107050125
1!
#1108610125
0!
#1109082125
1!
#1110658125
0!
#1111114125
1!
#1112706125
0!
#1113146125
1!
#1114754125
0!
#1115178125
1!
#1116802125
0!
#1117210125
1!
#1118850125
0!
#1119242125
1!
#1120898125
0!
#1121274125
1!
#1122946125
0!
#1123306125
1!
#1124994125
0!
#1125334125
1!
#1127046125
0!
#1127366125
1!
#1129094125
0!
#1129398125
1!
#1131142125
0!
#1131430125
1!
#1133190125
0!
#1133462125
1!
#1135238125
0!
#1135494125
1!
#1137286125
0!
#1137526125
1!
#1139334125
0!
#1139558125
1!
#1141382125
0!
#1141590125
1!
#1143430125
0!
#1143622125
1!
#1145478125
0!
#1145654125
1!
#1147526125
0!
#1147686125
1!
#1149574125
0!
#1149718125
1!
#1151622125
0!
#1151750125
1!
#1153670125
0!
#1153786125
1!
#1155714125
0!
#1155834125
1!
#1157746125
0!
#1157882125
1!
#1159778125
0!
#1159930125
1!
#1161810125
0!
#1161978125
1!
#1163842125
0!
#1164026125
1!
#1165874125
0!
#1166074125
1!
#1167906125
0!
#1168122125
1!
#1169938125
0!
#1170170125
1!
#1171970125
0!
#1172218125
1!
#1174002125
0!
#1174266125
1!
#1176034125
0!
#1176314125
1!
#1178066125
0!
#1178362125
1!
#1180098125
0!
#1180410125
1!
#1182130125
0!
#1182458125
1!
#1184162125
0!
#1184506125
1!
#1186194125
0!
#1186554125
1!
#1188226125
0!
#1188602125
1!
#1190258125
0!
#1190650125
1!
#1192290125
0!
#1192698125
1!
#1194322125
0!
#1194746125
1!
#1196354125
0!
#1196794125
1!
#1198386125
0!
#1198842125
1!
#1200418125
0!
#1200890125
1!
#1202450125
0!
#1202938125
1!
#1204482125
0!
#1204986125
1!
#1206514125
0!
#1207034125
1!
#1208546125
0!
#1209082125
1!
#1210578125
0!
#1211130125
1!
#1212610125
0!
#1213178125
1!
#1214642125
0!
#1215226125
1!
#1216674125
0!
#1217274125
1!
#1218706125
0!
#1219322125
1!
#1220738125
0!
#1221370125
1!
#1222770125
0!
#1223418125
1!
#1224802125
0!
#1225466125
1!
#1226834125
0!
#1227514125
1!
#1228866125
0!
#1229562125
1!
#1230898125
0!
#1231610125
1!
#1232930125
0!
#1233658125
1!
#1234962125
0!
#1235706125
1!
#1236994125
0!
#1237754125
1!
#1239026125
0!
#1239802125
1!
#1241058125
0!
#1241854125
1!
#1243086125
0!
#1243902125
1!
#1245118125
0!
#1245950125
1!
#1247150125
0!
#1247998125
1!
#1249182125
0!
#1250046125
1!
#1251214125
0!
#1252094125
1!
#1253246125
0!
#1254142125
1!
#1255278125
0!
#1256190125
1!
#1257310125
0!
#1258238125
1!
#1259342125
0!
#1260286125
1!
#1261374125
0!
#1262334125
1!
#1263406125
0!
#1264382125
1!
#1265438125
0!
#1266430125
1!
#1267470125
0!
#1268478125
1!
#1269502125
0!
#1270526125
1!
#1271534125
0!
#1272574125
1!
#1273566125
0!
#1274622125
1!
#1275598125
0!
#1276670125
1!
#1277630125
0!
#1278718125
1!
#1279662125
0!
#1280766125
1!
#1281694125
0!
#1282814125
1!
#1283726125
0!
#1284862125
1!
#1285758125
0!
#1286910125
1!
#1287790125
0!
#1288958125
1!
#1289822125
0!
#1291006125
1!
#1291854125
0!
#1293054125
1!
#1293886125
0!
#1295102125
1!
#1295918125
0!
#1297150125
1!
#1297950125
0!
#1299198125
1!
#1299982125
0!
#1301246125
1!
#1302014125
0!
#1303294125
1!
#1304046125
0!
#1305342125
1!
#1306078125
0!
#1307390125
1!
#1308110125
0!
#1309438125
1!
#1310142125
0!
#1311486125
1!
#1312174125
0!
#1313534125
1!
#1314206125
0!
#1315582125
1!
#1316238125
0!
#1317630125
1!
#1318270125
0!
#1319678125
1!
#1320302125
0!
#1321726125
1!
#1322334125
0!
#1323774125
1!
#1324366125
0!
#1325822125
1!
#1326398125
0!
#1327870125
1!
#1328430125
0!
#1329918125
1!
#1330462125
0!
#1331966125
1!
#1332494125
0!
#1334014125
1!
#1334526125
0!
#1336062125
1!
#1336558125
0!
#1338110125
1!
#1338590125
0!
#1340158125
1!
#1340622125
0!
#1342206125
1!
#1342654125
0!
#1344254125
1!
#1344686125
0!
#1346302125
1!
#1346718125
0!
#1348350125
1!
#1348750125
0!
#1350398125
1!
#1350782125
0!
#1352446125
1!
#1352814125
0!
#1354494125
1!
#1354846125
0!
#1356542125
1!
#1356878125
0!
#1358594125
1!
#1358906125
0!
#1360642125
1!
#1360938125
0!
#1362690125
1!
#1362970125
0!
#1364738125
1!
#1365002125
0!
#1366786125
1!
#1367034125
0!
#1368834125
1!
#1369066125
0!
#1370882125
1!
#1371098125
0!
#1372930125
1!
#1373130125
0!
#1374978125
1!
#1375162125
0!
#1377026125
1!
#1377194125
0!
#1379074125
1!
#1379226125
0!
#1381122125
1!
#1381258125
0!
#1383170125
1!
#1383290125
0!
#1385214125
1!
#1385326125
0!
#1387246125
1!
#1387374125
0!
#1389278125
1!
#1389422125
0!
#1391310125
1!
#1391470125
0!
#1393342125
1!
#1393518125
0!
#1395374125
1!
#1395566125
0!
#1397406125
1!
#1397614125
0!
#1399438125
1!
#1399662125
0!
#1401470125
1!
#1401710125
0!
#1403502125
1!
#1403758125
0!
#1405534125
1!
#1405806125
0!
#1407566125
1!
#1407854125
0!
#1409598125
1!
#1409902125
0!
#1411630125
1!
#1411950125
0!
#1413662125
1!
#1413998125
0!
#1415694125
1!
#1416046125
0!
#1417726125
1!
#1418094125
0!
#1419758125
1!
#1420142125
0!
#1421790125
1!
#1422190125
0!
#1423822125
1!
#1424238125
0!
#1425854125
1!
#1426286125
0!
#1427886125
1!
#1428334125
0!
#1429918125
1!
#1430382125
0!
#1431950125
1!
#1432430125
0!
#1433982125
1!
#1434478125
0!
#1436014125
1!
#1436526125
0!
#1438046125
1!
#1438574125
0!
#1440078125
1!
#1440622125
0!
#1442110125
1!
#1442670125
0!
#1444142125
1!
#1444718125
0!
#1446174125
1!
#1446766125
0!
#1448206125
1!
#1448814125
0!
#1450238125
1!
#1450862125
0!
#1452270125
1!
#1452910125
0!
#1454302125
1!
#1454958125
0!
#1456334125
1!
#1457006125
0!
#1458366125
1!
#1459054125
0!
#1460398125
1!
#1461102125
0!
#1462430125
1!
#1463150125
0!
#1464462125
1!
#1465198125
0!
#1466494125
1!
#1467246125
0!
#1468526125
1!
#1469294125
0!
#1470558125
1!
#1471342125
0!
#1472590125
1!
#1473390125
0!
#1474618125
1!
#1475442125
0!
#1476650125
1!
#1477490125
0!
#1478682125
1!
#1479538125
0!
#1480714125
1!
#1481586125
0!
#1482746125
1!
#1483634125
0!
#1484778125
1!
#1485682125
0!
#1486810125
1!
#1487730125
0!
#1488842125
1!
#1489778125
0!
#1490874125
1!
#1491826125
0!
#1492906125
1!
#1493874125
0!
#1494938125
1!
#1495922125
0!
#1496970125
1!
#1497970125
0!
#1499002125
1!
#1500018125
0!
#1501034125
1!
#1502066125
0!
#1503066125
1!
#1504114125
0!
#1505098125
1!
#1506162125
0!
#1507130125
1!
#1508210125
0!
#1509162125
1!
#1510258125
0!
#1511194125
1!
#1512306125
0!
#1513226125
1!
#1514354125
0!
#1515258125
1!
#1516402125
0!
#1517290125
1!
#1518450125
0!
#1519322125
1!
#1520498125
0!
#1521354125
1!
#1522546125
0!
#1523386125
1!
#1524594125
0!
#1525418125
1!
#1526642125
0!
#1527450125
1!
#1528690125
0!
#1529482125
1!
#1530738125
0!
#1531514125
1!
#1532786125
0!
#1533546125
1!
#1534834125
0!
#1535578125
1!
#1536882125
0!
#1537610125
1!
#1538930125
0!
#1539642125
1!
#1540978125
0!
#1541674125
1!
#1543026125
0!
#1543706125
1!
#1545074125
0!
#1545738125
1!
#1547122125
0!
#1547770125
1!
#1549170125
0!
#1549802125
1!
#1551218125
0!
#1551834125
1!
#1553266125
0!
#1553866125
1!
#1555314125
0!
#1555898125
1!
#1557362125
0!
#1557930125
1!
#1559410125
0!
#1559962125
1!
#1561458125
0!
#1561994125
1!
#1563506125
0!
#1564026125
1!
#1565554125
0!
#1566058125
1!
#1567602125
0!
#1568090125
1!
#1569650125
0!
#1570122125
1!
#1571698125
0!
#1572154125
1!
#1573746125
0!
#1574186125
1!
#1575794125
0!
#1576218125
1!
#1577842125
0!
#1578250125
1!
#1579890125
0!
#1580282125
1!
#1581938125
0!
#1582314125
1!
#1583986125
0!
#1584346125
1!
#1586034125
0!
#1586378125
1!
#1588082125
0!
#1588410125
1!
#1590130125
0!
#1590438125
1!
#1592182125
0!
#1592470125
1!
#1594230125
0!
#1594502125
1!
#1596278125
0!
#1596534125
1!
#1598326125
0!
#1598566125
1!
#1600374125
0!
#1600598125
1!
#1602422125
0!
#1602630125
1!
#1604470125
0!
#1604662125
1!
#1606518125
0!
#1606694125
1!
#1608566125
0!
#1608726125
1!
#1610614125
0!
#1610758125
1!
#1612662125
0!
#1612790125
1!
#1614710125
0!
#1614826125
1!
#1616754125
0!
#1616874125
1!
#1618786125
0!
#1618922125
1!
#1620818125
0!
#1620970125
1!
#1622850125
0!
#1623018125
1!
#1624882125
0!
#1625066125
1!
#1626914125
0!
#1627114125
1!
#1628946125
0!
#1629162125
1!
#1630978125
0!
#1631210125
1!
#1633010125
0!
#1633258125
1!
#1635042125
0!
#1635306125
1!
#1637074125
0!
#1637354125
1!
#1639106125
0!
#1639402125
1!
#1641138125
0!
#1641450125
1!
#1643170125
0!
#1643498125
1!
#1645202125
0!
#1645546125
1!
#1647234125
0!
#1647594125
1!
#1649266125
0!
#1649642125
1!
#1651298125
0!
#1651690125
1!
#1653330125
0!
#1653738125
1!
#1655362125
0!
#1655786125
1!
#1657394125
0!
#1657834125
1!
#1659426125
0!
#1659882125
1!
#1661458125
0!
#1661930125
1!
#1663490125
0!
#1663978125
1!
#1665522125
0!
#1666026125
1!
#1667554125
0!
#1668074125
1!
#1669586125
0!
#1670122125
1!
#1671618125
0!
#1672170125
1!
#1673650125
0!
#1674218125
1!
#1675682125
0!
#1676266125
1!
#1677714125
0!
#1678314125
1!
#1679746125
0!
#1680362125
1!
#1681778125
0!
#1682410125
1!
#1683810125
0!
#1684458125
1!
#1685842125
0!
#1686506125
1!
#1687874125
0!
#1688554125
1!
#1689906125
0!
#1690602125
1!
#1691938125
0!
#1692650125
1!
#1693970125
0!
#1694698125
1!
#1696002125
0!
#1696746125
1!
#1698034125
0!
#1698794125
1!
#1700066125
0!
#1700842125
1!
#1702098125
0!
#1702890125
1!
#1704130125
0!
#1704938125
1!
#1706162125
0!
#1706986125
1!
#1708194125
0!
#1709038125
1!
#1710222125
0!
#1711086125
1!
#1712254125
0!
#1713134125
1!
#1714286125
0!
#1715182125
1!
#1716318125
0!
#1717230125
1!
#1718350125
0!
#1719278125
1!
#1720382125
0!
#1721326125
1!
#1722414125
0!
#1723374125
1!
#1724446125
0!
#1725422125
1!
#1726478125
0!
#1727470125
1!
#1728510125
0!
#1729518125
1!
#1730542125
0!
#1731566125
1!
#1732574125
0!
#1733614125
1!
#1734606125
0!
#1735662125
1!
#1736638125
0!
#1737710125
1!
#1738670125
0!
#1739758125
1!
#1740702125
0!
#1741806125
1!
#1742734125
0!
#1743854125
1!
#1744766125
0!
#1745902125
1!
#1746798125
0!
#1747950125
1!
#1748830125
0!
#1749998125
1!
#1750862125
0!
#1752046125
1!
#1752894125
0!
#1754094125
1!
#1754926125
0!
#1756142125
1!
#1756958125
0!
#1758190125
1!
#1758990125
0!
#1760238125
1!
#1761022125
0!
#1762286125
1!
#1763054125
0!
#1764334125
1!
#1765086125
0!
#1766382125
1!
#1767118125
0!
#1768430125
1!
#1769150125
0!
#1770478125
1!
#1771182125
0!
#1772526125
1!
#1773214125
0!
#1774574125
1!
#1775246125
0!
#1776622125
1!
#1777278125
0!
#1778670125
1!
#1779310125
0!
#1780718125
1!
#1781342125
0!
#1782766125
1!
#1783374125
0!
#1784814125
1!
#1785406125
0!
#1786862125
1!
#1787438125
0!
#1788910125
1!
#1789470125
0!
#1790958125
1!
#1791502125
0!
#1793006125
1!
#1793534125
0!
#1795054125
1!
#1795566125
0!
#1797102125
1!
